{
    "project_info": {
      "project_number": "574744417092",
      "firebase_url": "https://quiz-be15e.firebaseio.com",
      "project_id": "quiz-be15e",
      "storage_bucket": "quiz-be15e.appspot.com"
    },
    "client": [
      {
        "client_info": {
          "mobilesdk_app_id": "1:574744417092:android:38eeb018749549da",
          "android_client_info": {
            "package_name": "com.trivia"
          }
        },
        "oauth_client": [
          {
            "client_id": "574744417092-jmdpucet1tofsvgop6qbtuoi3mjghucq.apps.googleusercontent.com",
            "client_type": 3
          }
        ],
        "api_key": [
          {
            "current_key": "AIzaSyD3Dgr0ySS7kbI9RJTzSgZkTfb4xaFXfRA"
          }
        ],
        "services": {
          "analytics_service": {
            "status": 1
          },
          "appinvite_service": {
            "status": 1,
            "other_platform_oauth_client": []
          },
          "ads_service": {
            "status": 2
          }
        }
      }
    ],
    "configuration_version": "1"
}